<svg xmlns="http://www.w3.org/2000/svg" xmlns:xlink="http://www.w3.org/1999/xlink" width="1920" height="1355" viewBox="0 0 1920 1355">
  <defs>
    <clipPath id="clip-path">
      <rect id="Rectangle_24" data-name="Rectangle 24" width="1920" height="1355" transform="translate(0 2336)" fill="#fff" stroke="#707070" stroke-width="1"/>
    </clipPath>
  </defs>
  <g id="Mask_Group_9" data-name="Mask Group 9" transform="translate(0 -2336)" clip-path="url(#clip-path)">
    <path id="Path_21" data-name="Path 21" d="M-24.167,2467.235c171.366-90.077,456.977-59.319,709.632,195.533s90.077,599.782,806.3,716.223,384.476,606.373,384.476,606.373S533.872,4334.688,505.311,4334.688-549.251,3811.8-544.857,3778.847-195.533,2557.313-24.167,2467.235Z" transform="matrix(0.978, -0.208, 0.208, 0.978, -768.933, 385.196)" fill="#eceaea"/>
    <path id="Path_22" data-name="Path 22" d="M-24.167,2467.235c171.366-90.077,456.977-59.319,709.632,195.533s90.077,599.782,806.3,716.223,384.476,606.373,384.476,606.373S533.872,4334.688,505.311,4334.688-549.251,3811.8-544.857,3778.847-195.533,2557.313-24.167,2467.235Z" transform="matrix(0.966, -0.259, 0.259, 0.966, -1854.292, 530.322)" fill="#573a2f" opacity="0.06"/>
    <path id="Path_23" data-name="Path 23" d="M1800.359,2173.235c-158.985-172.15-456.965-183.813-535.676,78.157s332.657,182.5,347.621,481.968,225.835,206.9,310.619,81.207S1959.345,2345.385,1800.359,2173.235Z" transform="matrix(0.951, -0.309, 0.309, 0.951, -630.22, 1022.136)" fill="#fff" opacity="0.37"/>
  </g>
</svg>
